q0|0|BBBBBBBBBBBBBBBBBBBBBBBBBBBBBBBBBBBBBBBBBBBBBBBBBBBBBBBBBBBBBBBBBB0011|0


q3|69|BBBBBBBBBBBBBBBBBBBBBBBBBBBBBBBBBBBBBBBBBBBBBBBBBBBBBBBBBBBBBBBBBBXXYY|0


q4|69|BBBBBBBBBBBBBBBBBBBBBBBBBBBBBBBBBBBBBBBBBBBBBBBBBBBBBBBBBBBBBBBBXXYYBB|1


q4|13|XXXXXXYYYYYYBBBBBBBBBBBBBBBBBBBBBBBBBBBBBBBBBBBBBBBBBBBBBBBBBBBBBBBBBB|1


q3|12|XXXXXXYYYYYY1BBBBBBBBBBBBBBBBBBBBBBBBBBBBBBBBBBBBBBBBBBBBBBBBBBBBBBBBB|0


q2|34|XXYYYYYYXYXXYXXXYYYXYYYYYYYYXXXYYYZBBBBBBBBBBBBBBBBBBBBBBBBBBBBBBBBBBB|1


q2|68|XXYYYYYYXYXXYXXXYYYXYYYYYYYYXXXYYYYBBBBBBBBBBBBBBBBBBBBBBBBBBBBBBBBBZB|1


q2|68|00111111010010001110111111110001111BBBBBBBBBBBBBBBBBBBBBBBBBBBBBBBBBZB|1


q5|1|0000000000000BBBBBBBBBBBBBBBBBBBBBBBBBBBBBBBBBBBBBBBBBBBBBBBBBBBBBBBBB|1


q3|2|XY0101BBBBBBBBBBBBBBBBBBBBBBBBBBBBBBBBBBBBBBBBBBBBBBBBBBBBBBBBBBBBBBBB|0


