running ./testni_primjeri/test01/test.a
a,b,a
s1,s2,s3,s4,s5
a,b,c
s2,s5
s1
s1,a->s2
s1,b->s5
s1,c->s3
s2,a->s3
s2,b->s1
s2,c->s4
s3,a->s4
s3,b->s2
s3,c->s4
s4,a->s5
s4,b->s3
s4,c->s1
s5,a->s1
s5,b->s4
s5,c->s1


running ./testni_primjeri/test02/test.a
c,a,b,b,a
s1,s2,s3,s4,s5
a,b,c
s2,s5
s1
s1,a->s2
s1,b->s5
s1,c->s3
s2,a->s3
s2,b->s1
s2,c->s4
s3,a->s4
s3,b->s2
s3,c->s4
s4,a->s5
s4,b->s3
s4,c->s1
s5,a->s1
s5,b->s4
s5,c->s1


running ./testni_primjeri/test03/test.a
a,b,c,b,a,a
s1,s2,s3,s4,s5
a,b,c
s2,s5
s1
s1,a->s2
s1,b->s5
s1,c->s3
s2,a->s3
s2,b->s1
s2,c->s4
s3,a->s4
s3,b->s2
s3,c->s4
s4,a->s5
s4,b->s3
s4,c->s1
s5,a->s1
s5,b->s4
s5,c->s1


running ./testni_primjeri/test04/test.a
c,b,c,b,a,a,a,b
s1,s2,s3,s4,s5
a,b,c
s2,s5
s1
s1,a->s2
s1,b->s5
s1,c->s3
s2,a->s3
s2,b->s1
s2,c->s4
s3,a->s4
s3,b->s2
s3,c->s4
s4,a->s5
s4,b->s3
s4,c->s1
s5,a->s1
s5,b->s4
s5,c->s1


running ./testni_primjeri/test05/test.a
c,b,c,b,a,a,a,b,c,b,c,b,a,a,a,b,c,b,c,b,a,a,a,b,c,a,b,b,a,c,a,b,b,a,a,b,c,b,a,a,a,b,c,b,a,a
s1,s2,s3,s4,s5
a,b,c
s2,s5
s1
s1,a->s2
s1,b->s5
s1,c->s3
s2,a->s3
s2,b->s1
s2,c->s4
s3,a->s4
s3,b->s2
s3,c->s4
s4,a->s5
s4,b->s3
s4,c->s1
s5,a->s1
s5,b->s4
s5,c->s1


running ./testni_primjeri/test06/test.a
a,b,a
s1,s2,s3,s4,s5
a,b,c
s2,s5
s1
s1,a->s2
s1,b->s5
s1,c->s3,s4
s2,a->s3
s2,b->s1
s2,c->s4,s5
s3,a->s4
s3,b->s2
s3,c->s4,s5
s4,a->s5
s4,b->s3
s4,c->s1,s5
s5,a->s1
s5,b->s4


running ./testni_primjeri/test07/test.a
c,a,b,b,a
s1,s2,s3,s4,s5
a,b,c
s2,s5
s1
s1,a->s2
s1,b->s5
s1,c->s3,s4
s2,a->s3
s2,b->s1
s2,c->s4,s5
s3,a->s4
s3,b->s2
s3,c->s4,s5
s4,a->s5
s4,b->s3
s4,c->s1,s5
s5,a->s1
s5,b->s4


running ./testni_primjeri/test08/test.a
a,b,c,b,a,a
s1,s2,s3,s4,s5
a,b,c
s2,s5
s1
s1,a->s2
s1,b->s5
s1,c->s3,s4
s2,a->s3
s2,b->s1
s2,c->s4,s5
s3,a->s4
s3,b->s2
s3,c->s4,s5
s4,a->s5
s4,b->s3
s4,c->s1,s5
s5,a->s1
s5,b->s4


running ./testni_primjeri/test09/test.a
c,b,c,b,a,a,a,b
s1,s2,s3,s4,s5
a,b,c
s2,s5
s1
s1,a->s2
s1,b->s5
s1,c->s3,s4
s2,a->s3
s2,b->s1
s2,c->s4,s5
s3,a->s4
s3,b->s2
s3,c->s4,s5
s4,a->s5
s4,b->s3
s4,c->s1,s5
s5,a->s1
s5,b->s4


running ./testni_primjeri/test10/test.a
c,b,c,b,a,a,a,b,c,b,c,b,a,a,a,b,c,b,c,b,a,a,a,b,c,a,b,b,a,c,a,b,b,a,a,b,c,b,a,a,a,b,c,b,a,a
s1,s2,s3,s4,s5
a,b,c
s2,s5
s1
s1,a->s2
s1,b->s5
s1,c->s3,s4
s2,a->s3
s2,b->s1
s2,c->s4,s5
s3,a->s4
s3,b->s2
s3,c->s4,s5
s4,a->s5
s4,b->s3
s4,c->s1,s5
s5,a->s1
s5,b->s4


running ./testni_primjeri/test11/test.a
a,b,a
s1,s2,s3,s4,s5
a,b,c,d
s2,s5
s1
s1,a->s2,s3
s1,b->s5
s1,c->s3
s2,a->s3
s2,b->s1,s5
s2,c->s2,s4
s3,a->s4
s3,b->s2,s3
s3,c->s4,s5
s4,a->s5
s4,b->s1,s3
s4,c->s1,s5
s5,a->s1
s5,b->s4


running ./testni_primjeri/test12/test.a
c,a,b,b,a
s1,s2,s3,s4,s5
a,b,c,d
s2,s5
s1
s1,a->s2,s3
s1,b->s5
s1,c->s3
s2,a->s3
s2,b->s1,s5
s2,c->s2,s4
s3,a->s4
s3,b->s2,s3
s3,c->s4,s5
s4,a->s5
s4,b->s1,s3
s4,c->s1,s5
s5,a->s1
s5,b->s4


running ./testni_primjeri/test13/test.a
a,b,c,b,a,d
s1,s2,s3,s4,s5
a,b,c,d
s2,s5
s1
s1,a->s2,s3
s1,b->s5
s1,c->s3
s2,a->s3
s2,b->s1,s5
s2,c->s2,s4
s3,a->s4
s3,b->s2,s3
s3,c->s4,s5
s4,a->s5
s4,b->s1,s3
s4,c->s1,s5
s5,a->s1
s5,b->s4


running ./testni_primjeri/test14/test.a
c,b,c,b,a,a,d,b
s1,s2,s3,s4,s5
a,b,c,d
s2,s5
s1
s1,a->s2,s3
s1,b->s5
s1,c->s3
s2,a->s3
s2,b->s1,s5
s2,c->s2,s4
s3,a->s4
s3,b->s2,s3
s3,c->s4,s5
s4,a->s5
s4,b->s1,s3
s4,c->s1,s5
s5,a->s1
s5,b->s4


running ./testni_primjeri/test15/test.a
c,b,c,b,a,a,a,b,c,b,c,b,a,a,a,b,c,b,c,b,a,a,a,b,c,a,b,b,a,c,a,b,b,a,a,b,c,b,a,a,a,d,c,b,a,a
s1,s2,s3,s4,s5
a,b,c,d
s2,s5
s1
s1,a->s2,s3
s1,b->s5
s1,c->s3
s2,a->s3
s2,b->s1,s5
s2,c->s2,s4
s3,a->s4
s3,b->s2,s3
s3,c->s4,s5
s4,a->s5
s4,b->s1,s3
s4,c->s1,s5
s5,a->s1
s5,b->s4


running ./testni_primjeri/test16/test.a
a,b,c,b,a,d
s1,s2,s3,s4,s5,s6,s7
a,b,c,d
s2,s5
s1
s1,$->s3,s6,s7
s1,a->s1,s3
s1,b->s5
s1,c->s3
s1,d->s3
s2,$->s2
s2,a->s3
s2,b->s1,s5
s2,c->s2,s2
s2,d->s4
s3,$->s3
s3,a->#
s3,b->s2,s3
s3,c->s4,s5
s3,d->s1
s4,a->s4
s4,b->s1,s4
s4,c->s1,s5
s5,a->s1
s5,b->s5


running ./testni_primjeri/test17/test.a
c,a,b,b,a
s1,s2,s3,s4,s5
a,b,c,d
s2,s5
s1
s1,a->s2,s3
s1,b->s5
s1,c->s3
s1,d->s3
s2,a->#
s2,b->s1,s5
s2,c->s2,s4
s2,d->s4
s3,a->#
s3,b->s2,s3
s3,c->s4,s5
s3,d->s1
s4,a->#
s4,b->s1,s3
s4,c->s1,s5
s5,a->s1
s5,b->#


running ./testni_primjeri/test18/test.a
lab2,lala,dugackiznakabecede12,a,lab2,lala,pnp,utr
a,b,dugackinazivstanja12,p5,s3,s4,st6,stanje1,stanje2
a,dugackiznakabecede12,lab2,lala,pnp,utr
p5
stanje1
a,a->a,b
dugackinazivstanja12,dugackiznakabecede12->s3,s4
s3,a->stanje2
s3,lab2->p5,s4
s4,$->st6
s4,utr->p5,s3
stanje1,$->dugackinazivstanja12
stanje1,a->stanje2
stanje1,pnp->s3
stanje2,$->a,st6
stanje2,a->#


running ./testni_primjeri/test19/test.a
pnp,a
a,b,dugackinazivstanja12,p5,s3,s4,st6,stanje1,stanje2
a,dugackiznakabecede12,lab2,lala,pnp,utr
p5
stanje1
a,a->a,b
dugackinazivstanja12,dugackiznakabecede12->s3,s4
s3,a->stanje2
s3,lab2->p5,s4
s4,$->st6
s4,utr->p5,s3
stanje1,$->dugackinazivstanja12
stanje1,a->stanje2
stanje1,pnp->s3
stanje2,$->a,st6
stanje2,a->#


running ./testni_primjeri/test20/test.a
c,a,b,b,a
s1,s2,s3,s4,s5
a,b,c,d
s2,s5
s1
s1,a->s1,s3
s1,b->s5
s1,c->s3
s1,d->s3
s2,a->s3
s2,b->s1,s5
s2,c->s2,s2
s2,d->s4
s3,a->#
s3,b->s2,s3
s3,c->s4,s5
s3,d->s1
s4,a->s4
s4,b->s1,s4
s4,c->s1,s5
s5,a->s1
s5,b->s5


running ./testni_primjeri/test21/test.a
a,b,c,b,a,d
s1,s2,s3,s4,s5
a,b,c,d
s2,s5
s1
s1,a->s1,s3
s1,b->s5
s1,c->s3
s1,d->s3
s2,a->s3
s2,b->s1,s5
s2,c->s2,s2
s2,d->s4
s3,a->#
s3,b->s2,s3
s3,c->s4,s5
s3,d->s1
s4,a->s4
s4,b->s1,s4
s4,c->s1,s5
s5,a->s1
s5,b->s5


running ./testni_primjeri/test22/test.a
lala,lab2
a,b,dugackinazivstanja12,p5,s3,s4,st6,stanje1,stanje2
a,dugackiznakabecede12,lab2,lala,pnp,utr
p5
stanje1
a,a->a,b
dugackinazivstanja12,dugackiznakabecede12->s3,s4
s3,a->stanje2
s3,lab2->p5,s4
s4,$->st6
s4,utr->p5,s3
stanje1,$->dugackinazivstanja12
stanje1,a->stanje2
stanje1,pnp->s3
stanje2,$->a,st6
stanje2,a->#


running ./testni_primjeri/test23/test.a
dugackiznakabecede12
a,b,dugackinazivstanja12,p5,s3,s4,st6,stanje1,stanje2
a,dugackiznakabecede12,lab2,lala,pnp,utr
p5
stanje1
a,a->a,b
dugackinazivstanja12,dugackiznakabecede12->s3,s4
s3,a->stanje2
s3,lab2->p5,s4
s4,$->st6
s4,utr->p5,s3
stanje1,$->dugackinazivstanja12
stanje1,a->stanje2
stanje1,pnp->s3
stanje2,$->a,st6
stanje2,a->#


running ./testni_primjeri/test24/test.a
d,a,a,b,c,a,c,a,b,b,a,b,a
s1,s2,s3,s4,s5
a,b,c,d
s2,s5
s1
s1,a->s1,s3
s1,b->s5
s1,c->s3
s1,d->s3
s2,$->s2
s2,a->s3
s2,b->s1,s5
s2,c->s2,s2
s2,d->s4
s3,$->s3
s3,a->#
s3,b->s2,s3
s3,c->s4,s5
s3,d->s1
s4,a->s4
s4,b->s1,s4
s4,c->s1,s5
s5,a->s1
s5,b->s5


running ./testni_primjeri/test25/test.a
a,b,c,b,a,d
s1,s2,s3,s4,s5
a,b,c,d
s2,s5
s1
s1,a->s1,s3
s1,b->s5
s1,c->s3
s1,d->s3
s2,$->s2
s2,a->s3
s2,b->s1,s5
s2,c->s2,s2
s2,d->s4
s3,$->s3
s3,a->#
s3,b->s2,s3
s3,c->s4,s5
s3,d->s1
s4,a->s4
s4,b->s1,s4
s4,c->s1,s5
s5,a->s1
s5,b->s5


running ./testni_primjeri/test26/test.a
c,c,a
s1,s10,s100,s11,s12,s13,s14,s15,s16,s17,s18,s19,s2,s20,s21,s22,s23,s24,s25,s26,s27,s28,s29,s3,s30,s31,s32,s33,s34,s35,s36,s37,s38,s39,s4,s40,s41,s42,s43,s44,s45,s46,s47,s48,s49,s5,s50,s51,s52,s53,s54,s55,s56,s57,s58,s59,s6,s60,s61,s62,s63,s64,s65,s66,s67,s68,s69,s7,s70,s71,s72,s73,s74,s75,s76,s77,s78,s79,s8,s80,s81,s82,s83,s84,s85,s86,s87,s88,s89,s9,s90,s91,s92,s93,s94,s95,s96,s97,s98,s99
a,b,c
s35
s1
s1,$->s2
s10,$->s11
s11,$->s12
s12,$->s13
s13,$->s14
s14,$->s15
s15,$->s16
s16,$->s17
s17,$->s18
s18,$->s19
s19,$->s20
s2,$->s3
s20,$->s21
s21,$->s22
s22,$->s23
s23,$->s24
s24,$->s25
s25,$->s26
s26,$->s27
s27,$->s28
s28,$->s29
s29,$->s30
s3,$->s4
s30,$->s31
s31,$->s32
s32,$->s33
s33,$->s34
s34,$->s35
s35,$->s36
s36,$->s37
s37,$->s38
s38,$->s39
s39,$->s40
s4,$->s5
s40,$->s41
s41,$->s42
s42,$->s43
s43,$->s44
s44,$->s45
s45,$->s46
s46,$->s47
s47,$->s48
s48,$->s49
s49,$->s50
s5,$->s6
s50,$->s51
s51,$->s52
s52,$->s53
s53,$->s54
s54,$->s55
s55,$->s56
s56,$->s57
s57,$->s58
s58,$->s59
s59,$->s60
s6,$->s7
s60,$->s61
s61,$->s62
s62,$->s63
s63,$->s64
s64,$->s65
s65,$->s66
s66,$->s67
s67,$->s68
s68,$->s69
s69,$->s70
s7,$->s8
s70,$->s71
s71,$->s72
s72,$->s73
s73,$->s74
s74,$->s75
s75,$->s76
s76,$->s77
s77,$->s78
s78,$->s79
s79,$->s80
s8,$->s9
s80,$->s81
s81,$->s82
s82,$->s83
s83,$->s84
s84,$->s85
s85,$->s86
s86,$->s87
s87,$->s88
s88,$->s89
s89,$->s90
s9,$->s10
s90,$->s91
s91,$->s92
s92,$->s93
s93,$->s94
s94,$->s95
s95,$->s96
s96,$->s97
s97,$->s98
s98,$->s99
s99,$->s100


running ./testni_primjeri/test27/test.a
b,a
s1,s10,s100,s11,s12,s13,s14,s15,s16,s17,s18,s19,s2,s20,s21,s22,s23,s24,s25,s26,s27,s28,s29,s3,s30,s31,s32,s33,s34,s35,s36,s37,s38,s39,s4,s40,s41,s42,s43,s44,s45,s46,s47,s48,s49,s5,s50,s51,s52,s53,s54,s55,s56,s57,s58,s59,s6,s60,s61,s62,s63,s64,s65,s66,s67,s68,s69,s7,s70,s71,s72,s73,s74,s75,s76,s77,s78,s79,s8,s80,s81,s82,s83,s84,s85,s86,s87,s88,s89,s9,s90,s91,s92,s93,s94,s95,s96,s97,s98,s99
a,b,c
s35
s1
s1,$->s2
s10,$->s11
s11,$->s12
s12,$->s13
s13,$->s14
s14,$->s15
s15,$->s16
s16,$->s17
s17,$->s18
s18,$->s19
s19,$->s20
s2,$->s3
s20,$->s21
s21,$->s22
s22,$->s23
s23,$->s24
s24,$->s25
s25,$->s26
s26,$->s27
s27,$->s28
s28,$->s29
s29,$->s30
s3,$->s4
s30,$->s31
s31,$->s32
s32,$->s33
s33,$->s34
s34,$->s35
s35,$->s36
s36,$->s37
s37,$->s38
s38,$->s39
s39,$->s40
s4,$->s5
s40,$->s41
s41,$->s42
s42,$->s43
s43,$->s44
s44,$->s45
s45,$->s46
s46,$->s47
s47,$->s48
s48,$->s49
s49,$->s50
s5,$->s6
s50,$->s51
s51,$->s52
s52,$->s53
s53,$->s54
s54,$->s55
s55,$->s56
s56,$->s57
s57,$->s58
s58,$->s59
s59,$->s60
s6,$->s7
s60,$->s61
s61,$->s62
s62,$->s63
s63,$->s64
s64,$->s65
s65,$->s66
s66,$->s67
s67,$->s68
s68,$->s69
s69,$->s70
s7,$->s8
s70,$->s71
s71,$->s72
s72,$->s73
s73,$->s74
s74,$->s75
s75,$->s76
s76,$->s77
s77,$->s78
s78,$->s79
s79,$->s80
s8,$->s9
s80,$->s81
s81,$->s82
s82,$->s83
s83,$->s84
s84,$->s85
s85,$->s86
s86,$->s87
s87,$->s88
s88,$->s89
s89,$->s90
s9,$->s10
s90,$->s91
s91,$->s92
s92,$->s93
s93,$->s94
s94,$->s95
s95,$->s96
s96,$->s97
s97,$->s98
s98,$->s99
s99,$->s100


running ./testni_primjeri/test28/test.a
a,b
s1,s10,s100,s11,s12,s13,s14,s15,s16,s17,s18,s19,s2,s20,s21,s22,s23,s24,s25,s26,s27,s28,s29,s3,s30,s31,s32,s33,s34,s35,s36,s37,s38,s39,s4,s40,s41,s42,s43,s44,s45,s46,s47,s48,s49,s5,s50,s51,s52,s53,s54,s55,s56,s57,s58,s59,s6,s60,s61,s62,s63,s64,s65,s66,s67,s68,s69,s7,s70,s71,s72,s73,s74,s75,s76,s77,s78,s79,s8,s80,s81,s82,s83,s84,s85,s86,s87,s88,s89,s9,s90,s91,s92,s93,s94,s95,s96,s97,s98,s99
a,b,c
s35
s1
s1,$->s2
s10,$->s11
s11,$->s12
s12,$->s13
s13,$->s14
s14,$->s15
s15,$->s16
s16,$->s17
s17,$->s18
s18,$->s19
s19,$->s20
s2,$->s3
s20,$->s21
s21,$->s22
s22,$->s23
s23,$->s24
s24,$->s25
s25,$->s26
s26,$->s27
s27,$->s28
s28,$->s29
s29,$->s30
s3,$->s4
s30,$->s31
s31,$->s32
s32,$->s33
s33,$->s34
s34,$->s35
s35,$->s36
s36,$->s37
s37,$->s38
s38,$->s39
s39,$->s40
s4,$->s5
s40,$->s41
s41,$->s42
s42,$->s43
s43,$->s44
s44,$->s45
s45,$->s46
s46,$->s47
s47,$->s48
s48,$->s49
s49,$->s50
s5,$->s6
s50,$->s51
s51,$->s52
s52,$->s53
s53,$->s54
s54,$->s55
s55,$->s56
s56,$->s57
s57,$->s58
s58,$->s59
s59,$->s60
s6,$->s7
s60,$->s61
s61,$->s62
s62,$->s63
s63,$->s64
s64,$->s65
s65,$->s66
s66,$->s67
s67,$->s68
s68,$->s69
s69,$->s70
s7,$->s8
s70,$->s71
s71,$->s72
s72,$->s73
s73,$->s74
s74,$->s75
s75,$->s76
s76,$->s77
s77,$->s78
s78,$->s79
s79,$->s80
s8,$->s9
s80,$->s81
s81,$->s82
s82,$->s83
s83,$->s84
s84,$->s85
s85,$->s86
s86,$->s87
s87,$->s88
s88,$->s89
s89,$->s90
s9,$->s10
s90,$->s91
s91,$->s92
s92,$->s93
s93,$->s94
s94,$->s95
s95,$->s96
s96,$->s97
s97,$->s98
s98,$->s99
s99,$->s100


running ./testni_primjeri/test29/test.a
a,b,a
s1,s10,s100,s11,s12,s13,s14,s15,s16,s17,s18,s19,s2,s20,s21,s22,s23,s24,s25,s26,s27,s28,s29,s3,s30,s31,s32,s33,s34,s35,s36,s37,s38,s39,s4,s40,s41,s42,s43,s44,s45,s46,s47,s48,s49,s5,s50,s51,s52,s53,s54,s55,s56,s57,s58,s59,s6,s60,s61,s62,s63,s64,s65,s66,s67,s68,s69,s7,s70,s71,s72,s73,s74,s75,s76,s77,s78,s79,s8,s80,s81,s82,s83,s84,s85,s86,s87,s88,s89,s9,s90,s91,s92,s93,s94,s95,s96,s97,s98,s99
a,b,c
s35
s1
s1,$->s2
s10,$->s11
s11,$->s12
s12,$->s13
s13,$->s14
s14,$->s15
s15,$->s16
s16,$->s17
s17,$->s18
s18,$->s19
s19,$->s20
s2,$->s3
s20,$->s21
s21,$->s22
s22,$->s23
s23,$->s24
s24,$->s25
s25,$->s26
s26,$->s27
s27,$->s28
s28,$->s29
s29,$->s30
s3,$->s4
s30,$->s31
s31,$->s32
s32,$->s33
s33,$->s34
s34,$->s35
s35,$->s36
s36,$->s37
s37,$->s38
s38,$->s39
s39,$->s40
s4,$->s5
s40,$->s41
s41,$->s42
s42,$->s43
s43,$->s44
s44,$->s45
s45,$->s46
s46,$->s47
s47,$->s48
s48,$->s49
s49,$->s50
s5,$->s6
s50,$->s51
s51,$->s52
s52,$->s53
s53,$->s54
s54,$->s55
s55,$->s56
s56,$->s57
s57,$->s58
s58,$->s59
s59,$->s60
s6,$->s7
s60,$->s61
s61,$->s62
s62,$->s63
s63,$->s64
s64,$->s65
s65,$->s66
s66,$->s67
s67,$->s68
s68,$->s69
s69,$->s70
s7,$->s8
s70,$->s71
s71,$->s72
s72,$->s73
s73,$->s74
s74,$->s75
s75,$->s76
s76,$->s77
s77,$->s78
s78,$->s79
s79,$->s80
s8,$->s9
s80,$->s81
s81,$->s82
s82,$->s83
s83,$->s84
s84,$->s85
s85,$->s86
s86,$->s87
s87,$->s88
s88,$->s89
s89,$->s90
s9,$->s10
s90,$->s91
s91,$->s92
s92,$->s93
s93,$->s94
s94,$->s95
s95,$->s96
s96,$->s97
s97,$->s98
s98,$->s99
s99,$->s100


running ./testni_primjeri/test30/test.a
c,b,c,b,a,a,d,b
s1,s2,s3,s4,s5,s6,s7
a,b,c,d
s2,s5
s1
s1,$->s3,s6,s7
s1,a->s1,s3
s1,b->s5
s1,c->s3
s1,d->s3
s2,$->s2
s2,a->s3
s2,b->s1,s5
s2,c->s2,s2
s2,d->s4
s3,$->s3
s3,a->#
s3,b->s2,s3
s3,c->s4,s5
s3,d->s1
s4,a->s4
s4,b->s1,s4
s4,c->s1,s5
s5,a->s1
s5,b->s5


running ./testni_primjeri/test31/test.a
a,b,a
s1,s2,s3,s4,s5,s6,s7
a,b,c,d
s2,s5
s1
s1,$->s3,s6,s7
s1,a->s1,s3
s1,b->s5
s1,c->s3
s1,d->s3
s2,$->s2
s2,a->s3
s2,b->s1,s5
s2,c->s2,s2
s2,d->s4
s3,$->s3
s3,a->#
s3,b->s2,s3
s3,c->s4,s5
s3,d->s1
s4,a->s4
s4,b->s1,s4
s4,c->s1,s5
s5,a->s1
s5,b->s5


running ./testni_primjeri/test32/test.a
d,a,a,b,c,a,c,a,b,b,a,b,a
s1,s2,s3,s4,s5,s6,s7
a,b,c,d
s2,s5
s1
s1,$->s3,s6,s7
s1,a->s1,s3
s1,b->s5
s1,c->s3
s1,d->s3
s2,$->s2
s2,a->s3
s2,b->s1,s5
s2,c->s2,s2
s2,d->s4
s3,$->s3
s3,a->#
s3,b->s2,s3
s3,c->s4,s5
s3,d->s1
s4,a->s4
s4,b->s1,s4
s4,c->s1,s5
s5,a->s1
s5,b->s5


running ./testni_primjeri/test33/test.a
a,b,a,d|a,a,b,b,a|a,b,c,b,a,a|a,b,c,b,a,a,a,b|d,b,c,b,a,a,a,b,c,b,c,b,a,a,a,b,c,b,c,b,a,a,a,b,c,d,a,b,b,a,c,a,b,d,b,a,a,b,c,b,a,d,a,d,a,a,a,b,c,b,a,a|a,b,c,b,c,b,c,b,b,c,b,a,d,a,d,a,a,a,a,b,c,d,a,b
s1,s10,s11,s12,s13,s14,s15,s16,s17,s18,s19,s2,s20,s21,s22,s23,s24,s25,s26,s27,s28,s29,s3,s30,s31,s32,s33,s34,s35,s36,s37,s38,s39,s4,s40,s41,s42,s43,s44,s45,s46,s47,s48,s49,s5,s50,s6,s7,s8,s9
a,b,c,d
s46
s1
s1,a->s12,s27,s31,s34
s1,d->s11,s19,s4
s10,a->#
s10,b->s10,s36,s6
s10,c->#
s11,$->#
s11,b->s19,s28,s30,s43,s46
s12,a->s23,s36,s48
s12,c->s1,s47,s48,s5
s13,$->s10,s11,s23,s37
s13,c->s22,s27,s28,s29
s13,d->s1,s24
s14,c->s19,s22,s25
s14,d->s26,s34,s40
s15,b->s27,s35,s8
s15,d->s2
s16,$->s28,s30
s16,d->s15,s17,s24,s40
s17,c->#
s18,$->s12,s32,s33
s18,d->s45
s19,$->s1,s19,s24,s29
s2,$->s10
s2,d->s19,s22
s20,a->s17,s23,s32,s40,s5
s20,c->s16,s27,s40,s7
s21,$->s11,s21,s44
s21,a->#
s21,d->s38
s22,a->#
s22,b->s18,s31,s40
s22,d->s16,s28,s29,s4,s5
s23,$->s11,s19
s23,a->s2,s4,s43,s46,s5
s23,b->s29,s32,s46
s23,c->s39,s41
s23,d->s47
s24,$->s16,s19,s34,s4,s48
s24,a->s12,s23,s38
s24,c->s15,s26,s4,s8,s9
s24,d->s12,s43,s44,s46,s47
s25,$->s16,s26,s48
s25,a->s26
s25,c->s4
s26,a->s17
s26,c->s17,s42,s7
s26,d->s42
s27,$->s32
s27,b->s24,s4,s45
s27,c->s24,s29,s32,s45,s9
s27,d->s11,s26,s27,s6
s28,$->s5
s28,a->s37
s28,b->s14,s23,s31,s38,s48
s29,b->s32
s29,c->s11,s15,s3,s34,s37
s29,d->s17,s2
s3,$->s41
s3,a->s11,s24,s28,s40,s46
s3,b->s36,s39
s30,$->s10,s21,s24,s28,s7
s30,a->s24,s30,s43,s7
s30,b->s18
s30,d->s26,s6
s31,$->s22,s24
s31,a->s20,s4,s44,s7
s31,b->s14
s32,b->s14,s7
s33,$->s25
s33,a->#
s33,b->s22,s24,s43,s6
s33,d->s10,s35
s34,$->s18,s28,s42,s44
s34,b->s32
s34,d->s12,s15,s37,s45
s35,$->#
s35,a->s40,s44,s45
s35,b->#
s35,d->#
s36,b->s15,s18,s34,s41
s36,c->s17,s7
s37,$->s33,s35
s37,b->s1,s22,s41
s38,a->s22,s39,s6
s38,d->s23,s36
s39,a->s23,s36,s45,s47,s49
s4,a->s11,s22,s30,s35,s46
s4,b->s2,s38
s4,c->#
s40,$->s17
s41,$->#
s41,b->#
s41,c->s9
s41,d->s19,s24,s41,s47
s42,b->s1
s43,$->#
s43,b->s28
s43,d->#
s44,$->s38,s40,s46,s49
s44,d->s18,s19,s42
s45,b->s11,s36,s37
s46,$->#
s46,a->s14,s15,s23,s36,s8
s46,b->#
s46,d->s18,s32,s38,s8
s47,$->s35,s47
s47,a->#
s47,b->s18,s39,s46
s47,c->s33,s38
s48,$->s14,s2,s21,s25,s39
s48,a->s10,s23,s35,s37,s48
s48,d->s17,s4
s49,$->s24,s36
s5,c->s34,s37,s5
s50,d->#
s7,b->s12,s16,s33
s7,c->s36,s4,s40,s5,s6
s8,a->s39
s8,c->s13,s20,s8,s9
s8,d->s11,s22,s28,s4,s7
s9,$->s1,s13,s16,s43
s9,a->s10,s48
s9,d->s18,s30


